…
</div>
<div id="printing" class="section level2">
<h2>Printing</h2>
<ul>
<li>Tibbles only print the first 10 rows and all the columns that fit on a screen. - Each column displays its data type.</li>
<li>You will not accidentally print too much.</li>
</ul>
<pre class="r"><code>tibble(
  a = lubridate::now() + runif(1e3) * 86400,
  b = lubridate::today() + runif(1e3) * 30,
  c = 1:1e3,
  d = runif(1e3),
  e = sample(letters, 1e3, replace = TRUE)
)
## # A tibble: 1,000 × 5
##                      a          b     c          d     e
##                 &lt;dttm&gt;     &lt;date&gt; &lt;int&gt;      &lt;dbl&gt; &lt;chr&gt;
## 1  2017-02-19 09:02:23 2017-03-09     1 0.02150370     f
## 2  2017-02-19 01:42:10 2017-03-09     2 0.08031493     k
## 3  2017-02-19 05:36:59 2017-03-08     3 0.11670172     u
## 4  2017-02-19 18:49:56 2017-03-09     4 0.24552337     h
## 5  2017-02-19 04:15:06 2017-03-05     5 0.11232662     b
## 6  2017-02-19 10:00:27 2017-03-09     6 0.52834632     m
## 7  2017-02-19 13:42:43 2017-03-16     7 0.78928491     v
## 8  2017-02-19 17:02:27 2017-03-16     8 0.80388276     h
## 9  2017-02-19 15:09:33 2017-03-19     9 0.45767339     d
## 10 2017-02-19 09:14:04 2017-02-25    10 0.18177950     t
## # ... with 990 more rows</code></pre>
…
